BST260_Final_Project
…
#Turn variables into right types
data_clean <- data_clean %>% mutate(
                        key = as.factor(key),
                        mode = as.factor(mode),
                        obtained_date = as.factor(obtained_date),
                        music_genre = as.factor(music_genre),
                        tempo = as.numeric(tempo)
                        )

## Warning in mask$eval_all_mutate(quo): NA

#check and remove NAs introduced by tempo error
data_clean[!complete.cases(data_clean),]

## # A tibble: 4,980 x 18
##    instance_id artist_name       track_name popularity acousticness danceability
##          <dbl> <chr>             <chr>           <dbl>        <dbl>        <dbl>
##  1       89064 Axel Boman        Hello              47     0.00523         0.755
##  2       25836 PEEKABOO          Arrival            45     0.0233          0.729
##  3       27048 Fabian Mazur      If U Want~         33     0.108           0.493
##  4       55617 Wax Tailor        The Games~         45     0.0478          0.646
##  5       69685 Dahu              Vessel             37     0.203           0.769
##  6       83854 UNKLE             Lonely So~         51     0.0776          0.475
##  7       42194 UMEK              Hard Time~         35     0.0214          0.619
##  8       85035 Nightmares On Wax Ethnic Ma~         39     0.000307        0.729
##  9       83258 Booka Shade       In White ~         51     0.000962        0.8  
## 10       46721 LCD Soundsystem   Dance Yrs~         63     0.00557         0.739
## # ... with 4,970 more rows, and 12 more variables: duration_ms <dbl>,
## #   energy <dbl>, instrumentalness <dbl>, key <fct>, liveness <dbl>,
## #   loudness <dbl>, mode <fct>, speechiness <dbl>, tempo <dbl>,
## #   obtained_date <fct>, valence <dbl>, music_genre <fct>
…
